Final Project Wrangling
…
second10k | Predicted |             95% CI
------------------------------------------
   148920 |  26709.00 | 26139.30, 27278.70
   154080 |  27433.27 | 26905.67, 27960.88
   156240 |  27736.45 | 27184.01, 28288.90
   174180 |  30254.56 | 28997.28, 31511.85

Not all rows are shown in the output. Use `print(..., n = Inf)` to show
  all rows.

ggpredict(mod_2k, terms = c("second10k", "class_year", "v1")) |> 
  as.data.frame(terms_to_colnames = TRUE) |>
  as_tibble()

# A tibble: 120 × 7
   second10k predicted std.error conf.low conf.high class_year v1   
       <dbl>     <dbl>     <dbl>    <dbl>     <dbl> <fct>      <fct>
 1    148920    27739.      556.   26515.    28963. 1          0    
 2    148920    27053.      431.   26104.    28002. 1          1    
 3    148920    27625.      458.   26617.    28632. 2          0    
 4    148920    26938.      332.   26208.    27668. 2          1    
 5    148920    27510.      383.   26668.    28352. 3          0    
 6    148920    26824.      265.   26240.    27407. 3          1    
 7    148920    27396.      345.   26635.    28156. 4          0    
 8    148920    26709.      259.   26139.    27279. 4          1    
 9    153180    28337.      469.   27305.    29370. 1          0    
10    153180    27651.      361.   26856.    28445. 1          1    
# ℹ 110 more rows
…
